{
  "name": "",
  "css_prefix_text": "rp-",
  "css_use_suffix": false,
  "hinting": true,
  "units_per_em": 1000,
  "ascent": 850,
  "glyphs": [
    {
      "uid": "91426c82d94428a33353e495418435e3",
      "css": "share",
      "code": 59398,
      "src": "entypo"
    },
    {
      "uid": "77bcf90f0c68635bab5abfb4ed736696",
      "css": "publish",
      "code": 59392,
      "src": "entypo"
    },
    {
      "uid": "39c4d0e225a1263a398a47523cb5b9bd",
      "css": "brush",
      "code": 59393,
      "src": "entypo"
    },
    {
      "uid": "8d584f31a5d54de313f1f3da28708ec0",
      "css": "paypal",
      "code": 59397,
      "src": "entypo"
    },
    {
      "uid": "jh3jpcb1t1bcm80gidkadilh080aq79h",
      "css": "menu",
      "code": 59394,
      "src": "typicons"
    },
    {
      "uid": "aa86b5f7dd6d1087f35cbed951970cd1",
      "css": "yahoo",
      "code": 59395,
      "src": "zocial"
    },
    {
      "uid": "d52050c0a36711e29e960800200c9a66",
      "css": "box-rect",
      "code": 59396,
      "src": "brandico"
    }
  ]
}